DS4_Sentiment_Analysis_Céline_Dion_vs_Madonna
…
# separate df for Madonna
madonna <- filter(df2, artist == "Madonna")
madonna = madonna[-1,]

First step of the analysis :

Count most common words as a whole

df3 <- df2 %>%
  count(word, sort = TRUE) 
df3

## # A tibble: 574 x 2
##    word       n
##    <chr>  <int>
##  1 love     104
##  2 heart     42
##  3 baby      28
##  4 feel      26
##  5 candy     22
##  6 hold      22
##  7 ran       22
##  8 coming    21
##  9 life      21
## 10 faith     20
## # ... with 564 more rows
…
Looking at the individual datasets, shows us Céline Dion uses the word “love” much more often, than Madonna.

celine_rank<- celine %>%
  count(word, sort = TRUE) 
celine_rank

## # A tibble: 308 x 2
##    word       n
##    <chr>  <int>
##  1 love      78
##  2 baby      26
##  3 heart     25
##  4 coming    21
##  5 faith     20
##  6 yeah      16
##  7 time      14
##  8 feel      13
##  9 life      13
## 10 angel     11
## # ... with 298 more rows

madonna_rank <- madonna %>% 
  count(word, sort = TRUE)
madonna_rank

## # A tibble: 346 x 2
##    word        n
##    <chr>   <int>
##  1 love       26
##  2 candy      22
##  3 ran        22
##  4 shanti     20
##  5 heart      17
##  6 girl       16
##  7 perfume    16
##  8 hold       15
##  9 mmmmmm     15
## 10 om         15
## # ... with 336 more rows
…
!If we look at the positive words, again we can see that love is the most frequent by far, followed by “baby”, “faith” and “sky”. The list of the three “sky” related words is actually quite interesting, “sky”, “sun” and “star” being in the ten most frequent.

So whom do these positive words belong to? My guess is, that love is mentioned more by Céline Dion ( which we have already seen), and faith, angel will also be mentioned more by her.

Let’s see:

celine_pos <- df2 %>% 
  filter( artist == "Céline Dion") %>% 
  inner_join(nrc_pos) %>% 
  count(word, sort = TRUE) %>% 
  ungroup()

celine_pos

## # A tibble: 52 x 2
##    word         n
##    <chr>    <int>
##  1 love        78
##  2 baby        26
##  3 faith       20
##  4 angel       11
##  5 sun         10
##  6 sky          7
##  7 feeling      6
##  8 strength     6
##  9 kiss         5
## 10 shoulder     5
## # ... with 42 more rows

The top 5 pos words for Céline are: love, baby, faith, angel, sun.

madonna_pos <- df2 %>% 
  filter(artist == "Madonna") %>% 
  inner_join(nrc_pos) %>% 
  count(word, sort = TRUE) %>% 
  ungroup()

## Joining, by = "word"

madonna_pos

## # A tibble: 50 x 2
##    word          n
##    <chr>     <int>
##  1 love         26
##  2 star         13
##  3 traveling    12
##  4 sky           9
##  5 swim          9
##  6 learn         5
##  7 flying        4
##  8 sun           4
##  9 shining       3
## 10 baby          2
## # ... with 40 more rows
…
